{
  "project_info": {
    "project_number": "866913790791",
    "project_id": "form-pendaftaran-c585b",
    "storage_bucket": "form-pendaftaran-c585b.appspot.com"
  },
  "client": [
    {
      "client_info": {
        "mobilesdk_app_id": "1:866913790791:android:ac436c7fe6157a7946ba62",
        "android_client_info": {
          "package_name": "com.example.form_app_pendaftaran"
        }
      },
      "oauth_client": [
        {
          "client_id": "866913790791-0snqpaebsd3bsghml9isdeh59s37fvib.apps.googleusercontent.com",
          "client_type": 1,
          "android_info": {
            "package_name": "com.example.form_app_pendaftaran",
            "certificate_hash": "5386834983d0cd71b8b555e2916153bc6723176b"
          }
        },
        {
          "client_id": "866913790791-3m1ht44d337nk5rtfq2pmlplkph0n8ao.apps.googleusercontent.com",
          "client_type": 3
        }
      ],
      "api_key": [
        {
          "current_key": "AIzaSyCX3e6ZRS6P-xNQR5ebHeI0un-dlsKhfIc"
        }
      ],
      "services": {
        "appinvite_service": {
          "other_platform_oauth_client": [
            {
              "client_id": "866913790791-3m1ht44d337nk5rtfq2pmlplkph0n8ao.apps.googleusercontent.com",
              "client_type": 3
            }
          ]
        }
      }
    }
  ],
  "configuration_version": "1"
}